module gitlab.com/flimzy/lumberjack

go 1.21.0

require (
	cloud.google.com/go/logging v1.12.0
	github.com/getsentry/sentry-go v0.29.1
	github.com/google/go-cmp v0.6.0
	github.com/pkg/errors v0.9.1
	google.golang.org/api v0.206.0
)

require (
	cloud.google.com/go v0.116.0 // indirect
	cloud.google.com/go/auth v0.10.2 // indirect
	cloud.google.com/go/auth/oauth2adapt v0.2.5 // indirect
	cloud.google.com/go/compute/metadata v0.5.2 // indirect
	cloud.google.com/go/longrunning v0.6.2 // indirect
	github.com/felixge/httpsnoop v1.0.4 // indirect
	github.com/go-logr/logr v1.4.2 // indirect
	github.com/go-logr/stdr v1.2.2 // indirect
	github.com/golang/groupcache v0.0.0-20210331224755-41bb18bfe9da // indirect
	github.com/google/s2a-go v0.1.8 // indirect
	github.com/googleapis/enterprise-certificate-proxy v0.3.4 // indirect
	github.com/googleapis/gax-go/v2 v2.14.0 // indirect
	go.opencensus.io v0.24.0 // indirect
	go.opentelemetry.io/contrib/instrumentation/google.golang.org/grpc/otelgrpc v0.54.0 // indirect
	go.opentelemetry.io/contrib/instrumentation/net/http/otelhttp v0.54.0 // indirect
	go.opentelemetry.io/otel v1.29.0 // indirect
	go.opentelemetry.io/otel/metric v1.29.0 // indirect
	go.opentelemetry.io/otel/trace v1.29.0 // indirect
	golang.org/x/crypto v0.29.0 // indirect
	golang.org/x/net v0.31.0 // indirect
	golang.org/x/oauth2 v0.24.0 // indirect
	golang.org/x/sync v0.9.0 // indirect
	golang.org/x/sys v0.27.0 // indirect
	golang.org/x/text v0.20.0 // indirect
	golang.org/x/time v0.8.0 // indirect
	google.golang.org/genproto v0.0.0-20241104194629-dd2ea8efbc28 // indirect
	google.golang.org/genproto/googleapis/api v0.0.0-20241104194629-dd2ea8efbc28 // indirect
	google.golang.org/genproto/googleapis/rpc v0.0.0-20241104194629-dd2ea8efbc28 // indirect
	google.golang.org/grpc v1.67.1 // indirect
	google.golang.org/protobuf v1.35.2 // indirect
)
